{
	"swagger": "2.0",
	"info": {
		"description": "",
		"version": "1.0.0",
		"title": "Articles API"
	},
	"host": "",
	"basePath": "",
	"tags": [{
			"name": "User",
			"description": "User model related endpoints"
		},
		{
				"name": "Article",
				"description": "Article model related endpoints"
			},
		{
			"name": "Status",
			"description": "Server status"
		}
	],
	"schemes": [
		"http",
		"https"
	],
	"paths": {
		"/status": {
			"get": {
				"tags": [
					"Status"
				],
				"summary": "Get server status",
				"description": "",
				"operationId": "getStatus",
				"consumes": [
					"application/json"
				],
				"produces": [
					"application/json"
				],
				"responses": {
					"200": {
						"description": "up and running",
						"schema": {
							"$ref": "#/definitions/Status"
						}
					}
				}
			}
		},
		"/user": {
			"post": {
				"tags": [
					"User"
				],
				"summary": "Creates a new user",
				"description": "",
				"operationId": "new user",
				"consumes": [
					"application/json"
				],
				"produces": [
					"application/json"
				],
				"security": [
					{ "apiKey": [] }
				],
				"parameters": [
          {
            "in": "body",
            "name": "body",
            "description": "User data",
            "required": true,
            "schema": {
              "$ref": "#/definitions/User"
            }
          }
        ],
				"responses": {
					"200":{
						"description": "The user",
						"schema": {
							"$ref": "#/definitions/User"
						}
					},
					"401": {
						"description": "Unauthorized"
					},
					"400": {
						"description": "Bad Request"
					}
				}
			}
		},
		"/article": {
			"get": {
				"tags": [
					"Article"
				],
				"summary": "Fetchs articles by tags",
				"description": "",
				"operationId": "fetch articles",
				"consumes": [
					"application/json"
				],
				"produces": [
					"application/json"
				],
				"security": [
					{ "apiKey": [] }
				],
				"parameters": [
					{
						"in": "quer",
						"name": "tags",
						"description": "Comma separated tags"
					}
				],
				"responses": {
					"200":{
						"description": "The article",
						"schema": {
							"$ref": "#/definitions/Article"
						}
					},
					"401": {
						"description": "Unauthorized"
					},
					"400": {
						"description": "Bad Request"
					}
				}
			},
			"post": {
				"tags": [
					"Article"
				],
				"summary": "Creates a new article",
				"description": "",
				"operationId": "new article",
				"consumes": [
					"application/json"
				],
				"produces": [
					"application/json"
				],
				"security": [
					{ "apiKey": [] }
				],
				"parameters": [
					{
						"in": "body",
						"name": "body",
						"description": "Article data",
						"required": true,
						"schema": {
							"$ref": "#/definitions/Article"
						}
					}
				],
				"responses": {
					"200":{
						"description": "The article",
						"schema": {
							"$ref": "#/definitions/Article"
						}
					},
					"401": {
						"description": "Unauthorized"
					},
					"400": {
						"description": "Bad Request"
					}
				}
			}
		},
		"/article/{articleId}": {
			"put": {
				"tags": [
					"Article"
				],
				"summary": "Updates an article",
				"description": "",
				"operationId": "update article",
				"consumes": [
					"application/json"
				],
				"produces": [
					"application/json"
				],
				"security": [
					{ "apiKey": [] }
				],
				"parameters": [
					{
						"name": "articleId",
						"in": "path",
						"description": "ID of the article",
						"required": true,
						"type": "string"
					},
					{
						"in": "body",
						"name": "body",
						"description": "Article data",
						"required": true,
						"schema": {
							"$ref": "#/definitions/Article"
						}
					}
				],
				"responses": {
					"200":{
						"description": "The article",
						"schema": {
							"$ref": "#/definitions/Article"
						}
					},
					"401": {
						"description": "Unauthorized"
					},
					"400": {
						"description": "Bad Request"
					}
				}
			},
			"delete": {
				"tags": [
					"Article"
				],
				"summary": "Removes an article",
				"description": "",
				"operationId": "delete article",
				"consumes": [
					"application/json"
				],
				"produces": [
					"application/json"
				],
				"security": [
					{ "apiKey": [] }
        ],
				"parameters": [
					{
						"name": "articleId",
						"in": "path",
						"description": "ID of the article",
						"required": true,
						"type": "string"
					}
				],
				"responses": {
					"200":{
						"description": "Success"
					},
					"401": {
						"description": "Unauthorized"
					},
					"400": {
						"description": "Bad Request"
					}
				}
			}
		}
	},
	"securityDefinitions": {
		"apiKey": {
			"type": "apiKey",
	    "name": "api_key",
	    "in": "header"
		}
	},
	"definitions": {
		"User": {
			"type": "object",
			"properties": {
				"_id": {
					"type": "string"
				},
				"name": {
					"type": "string"
				},
				"avatar": {
					"type": "string"
				}
			}
		},
		"Article": {
			"type": "object",
			"properties": {
				"_id": {
					"type": "string"
				},
				"title": {
					"type": "string"
				},
				"text": {
					"type": "string"
				},
				"tags": {
					"type": "array",
					"items": {
						"type": "string"
					}
				}
			}
		},
		"Status": {
      "type": "object",
      "properties": {
        "uptime": {
          "type": "string",
          "format": "epoch"
        },
        "started": {
          "type": "string",
          "format": "date-time"
        }
      }
    }
	}
}
